The system is: Windows - 10.0.18363 - AMD64
Compiling the CXX compiler identification source file "CMakeCXXCompilerId.cpp" succeeded.
Compiler: C:/MinGW/bin/g++.exe 
Build flags: 
Id flags:  

The output was:
0


Compilation of the CXX compiler identification source "CMakeCXXCompilerId.cpp" produced "a.exe"

The CXX compiler identification is GNU, found in "G:/GameEngine/cmake-build-debug/CMakeFiles/3.17.3/CompilerIdCXX/a.exe"

Determining if the CXX compiler works passed with the following output:
Change Dir: G:/GameEngine/cmake-build-debug/CMakeFiles/CMakeTmp

Run Build Command(s):C:/MinGW/bin/mingw32-make.exe cmTC_fc5e7/fast && C:/MinGW/bin/mingw32-make.exe  -f CMakeFiles\cmTC_fc5e7.dir\build.make CMakeFiles/cmTC_fc5e7.dir/build
mingw32-make.exe[1]: Entering directory 'G:/GameEngine/cmake-build-debug/CMakeFiles/CMakeTmp'
Building CXX object CMakeFiles/cmTC_fc5e7.dir/testCXXCompiler.cxx.obj
C:\MinGW\bin\g++.exe     -o CMakeFiles\cmTC_fc5e7.dir\testCXXCompiler.cxx.obj -c G:\GameEngine\cmake-build-debug\CMakeFiles\CMakeTmp\testCXXCompiler.cxx
Linking CXX executable cmTC_fc5e7.exe
"F:\CLion 2020.2.4\bin\cmake\win\bin\cmake.exe" -E cmake_link_script CMakeFiles\cmTC_fc5e7.dir\link.txt --verbose=1
"F:\CLion 2020.2.4\bin\cmake\win\bin\cmake.exe" -E rm -f CMakeFiles\cmTC_fc5e7.dir/objects.a
C:\MinGW\bin\ar.exe cr CMakeFiles\cmTC_fc5e7.dir/objects.a @CMakeFiles\cmTC_fc5e7.dir\objects1.rsp
C:\MinGW\bin\g++.exe      -Wl,--whole-archive CMakeFiles\cmTC_fc5e7.dir/objects.a -Wl,--no-whole-archive  -o cmTC_fc5e7.exe -Wl,--out-implib,libcmTC_fc5e7.dll.a -Wl,--major-image-version,0,--minor-image-version,0 @CMakeFiles\cmTC_fc5e7.dir\linklibs.rsp
mingw32-make.exe[1]: Leaving directory 'G:/GameEngine/cmake-build-debug/CMakeFiles/CMakeTmp'



Detecting CXX compiler ABI info compiled with the following output:
Change Dir: G:/GameEngine/cmake-build-debug/CMakeFiles/CMakeTmp

Run Build Command(s):C:/MinGW/bin/mingw32-make.exe cmTC_f7cbe/fast && C:/MinGW/bin/mingw32-make.exe  -f CMakeFiles\cmTC_f7cbe.dir\build.make CMakeFiles/cmTC_f7cbe.dir/build
mingw32-make.exe[1]: Entering directory 'G:/GameEngine/cmake-build-debug/CMakeFiles/CMakeTmp'
Building CXX object CMakeFiles/cmTC_f7cbe.dir/CMakeCXXCompilerABI.cpp.obj
C:\MinGW\bin\g++.exe    -v -o CMakeFiles\cmTC_f7cbe.dir\CMakeCXXCompilerABI.cpp.obj -c "F:\CLion 2020.2.4\bin\cmake\win\share\cmake-3.17\Modules\CMakeCXXCompilerABI.cpp"
Using built-in specs.
COLLECT_GCC=C:\MinGW\bin\g++.exe
Target: mingw32
Configured with: ../src/gcc-9.2.0/configure --build=x86_64-pc-linux-gnu --host=mingw32 --target=mingw32 --disable-win32-registry --with-arch=i586 --with-tune=generic --enable-static --enable-shared --enable-threads --enable-languages=c,c++,objc,obj-c++,fortran,ada --with-dwarf2 --disable-sjlj-exceptions --enable-version-specific-runtime-libs --enable-libgomp --disable-libvtv --with-libiconv-prefix=/mingw --with-libintl-prefix=/mingw --enable-libstdcxx-debug --disable-build-format-warnings --prefix=/mingw --with-gmp=/mingw --with-mpfr=/mingw --with-mpc=/mingw --with-isl=/mingw --enable-nls --with-pkgversion='MinGW.org GCC Build-2'
Thread model: win32
gcc version 9.2.0 (MinGW.org GCC Build-2) 
COLLECT_GCC_OPTIONS='-v' '-o' 'CMakeFiles\cmTC_f7cbe.dir\CMakeCXXCompilerABI.cpp.obj' '-c' '-shared-libgcc' '-mtune=generic' '-march=i586'
 c:/mingw/bin/../libexec/gcc/mingw32/9.2.0/cc1plus.exe -quiet -v -iprefix c:\mingw\bin\../lib/gcc/mingw32/9.2.0/ F:\CLion 2020.2.4\bin\cmake\win\share\cmake-3.17\Modules\CMakeCXXCompilerABI.cpp -quiet -dumpbase CMakeCXXCompilerABI.cpp -mtune=generic -march=i586 -auxbase-strip CMakeFiles\cmTC_f7cbe.dir\CMakeCXXCompilerABI.cpp.obj -version -o C:\Users\Username\AppData\Local\Temp\cc6Tbm27.s
GNU C++14 (MinGW.org GCC Build-2) version 9.2.0 (mingw32)
	compiled by GNU C version 9.2.0, GMP version 6.1.2, MPFR version 4.0.2, MPC version 1.1.0, isl version isl-0.21-GMP

GGC heuristics: --param ggc-min-expand=100 --param ggc-min-heapsize=131072
ignoring nonexistent directory "c:\mingw\bin\../lib/gcc/mingw32/9.2.0/../../../../mingw32/include"
ignoring duplicate directory "c:/mingw/lib/gcc/../../lib/gcc/mingw32/9.2.0/include/c++"
ignoring duplicate directory "c:/mingw/lib/gcc/../../lib/gcc/mingw32/9.2.0/include/c++/mingw32"
ignoring duplicate directory "c:/mingw/lib/gcc/../../lib/gcc/mingw32/9.2.0/include/c++/backward"
ignoring duplicate directory "c:/mingw/lib/gcc/../../lib/gcc/mingw32/9.2.0/include"
ignoring nonexistent directory "/mingw/include"
ignoring duplicate directory "c:/mingw/lib/gcc/../../include"
ignoring duplicate directory "c:/mingw/lib/gcc/../../lib/gcc/mingw32/9.2.0/include-fixed"
ignoring nonexistent directory "c:/mingw/lib/gcc/../../lib/gcc/mingw32/9.2.0/../../../../mingw32/include"
ignoring nonexistent directory "/mingw/include"
#include "..." search starts here:
#include <...> search starts here:
 c:\mingw\bin\../lib/gcc/mingw32/9.2.0/include/c++
 c:\mingw\bin\../lib/gcc/mingw32/9.2.0/include/c++/mingw32
 c:\mingw\bin\../lib/gcc/mingw32/9.2.0/include/c++/backward
 c:\mingw\bin\../lib/gcc/mingw32/9.2.0/include
 c:\mingw\bin\../lib/gcc/mingw32/9.2.0/../../../../include
 c:\mingw\bin\../lib/gcc/mingw32/9.2.0/include-fixed
End of search list.
GNU C++14 (MinGW.org GCC Build-2) version 9.2.0 (mingw32)
	compiled by GNU C version 9.2.0, GMP version 6.1.2, MPFR version 4.0.2, MPC version 1.1.0, isl version isl-0.21-GMP

GGC heuristics: --param ggc-min-expand=100 --param ggc-min-heapsize=131072
Compiler executable checksum: cb31672760a9c1b42d1ddb86616116cd
COLLECT_GCC_OPTIONS='-v' '-o' 'CMakeFiles\cmTC_f7cbe.dir\CMakeCXXCompilerABI.cpp.obj' '-c' '-shared-libgcc' '-mtune=generic' '-march=i586'
 c:/mingw/bin/../lib/gcc/mingw32/9.2.0/../../../../mingw32/bin/as.exe -v -o CMakeFiles\cmTC_f7cbe.dir\CMakeCXXCompilerABI.cpp.obj C:\Users\Username\AppData\Local\Temp\cc6Tbm27.s
GNU assembler version 2.32 (mingw32) using BFD version (GNU Binutils) 2.32
COMPILER_PATH=c:/mingw/bin/../libexec/gcc/mingw32/9.2.0/;c:/mingw/bin/../libexec/gcc/;c:/mingw/bin/../lib/gcc/mingw32/9.2.0/../../../../mingw32/bin/
LIBRARY_PATH=c:/mingw/bin/../lib/gcc/mingw32/9.2.0/;c:/mingw/bin/../lib/gcc/;c:/mingw/bin/../lib/gcc/mingw32/9.2.0/../../../../mingw32/lib/;c:/mingw/bin/../lib/gcc/mingw32/9.2.0/../../../
COLLECT_GCC_OPTIONS='-v' '-o' 'CMakeFiles\cmTC_f7cbe.dir\CMakeCXXCompilerABI.cpp.obj' '-c' '-shared-libgcc' '-mtune=generic' '-march=i586'
Linking CXX executable cmTC_f7cbe.exe
"F:\CLion 2020.2.4\bin\cmake\win\bin\cmake.exe" -E cmake_link_script CMakeFiles\cmTC_f7cbe.dir\link.txt --verbose=1
"F:\CLion 2020.2.4\bin\cmake\win\bin\cmake.exe" -E rm -f CMakeFiles\cmTC_f7cbe.dir/objects.a
C:\MinGW\bin\ar.exe cr CMakeFiles\cmTC_f7cbe.dir/objects.a @CMakeFiles\cmTC_f7cbe.dir\objects1.rsp
C:\MinGW\bin\g++.exe     -v -Wl,--whole-archive CMakeFiles\cmTC_f7cbe.dir/objects.a -Wl,--no-whole-archive  -o cmTC_f7cbe.exe -Wl,--out-implib,libcmTC_f7cbe.dll.a -Wl,--major-image-version,0,--minor-image-version,0 
Using built-in specs.
COLLECT_GCC=C:\MinGW\bin\g++.exe
COLLECT_LTO_WRAPPER=c:/mingw/bin/../libexec/gcc/mingw32/9.2.0/lto-wrapper.exe
Target: mingw32
Configured with: ../src/gcc-9.2.0/configure --build=x86_64-pc-linux-gnu --host=mingw32 --target=mingw32 --disable-win32-registry --with-arch=i586 --with-tune=generic --enable-static --enable-shared --enable-threads --enable-languages=c,c++,objc,obj-c++,fortran,ada --with-dwarf2 --disable-sjlj-exceptions --enable-version-specific-runtime-libs --enable-libgomp --disable-libvtv --with-libiconv-prefix=/mingw --with-libintl-prefix=/mingw --enable-libstdcxx-debug --disable-build-format-warnings --prefix=/mingw --with-gmp=/mingw --with-mpfr=/mingw --with-mpc=/mingw --with-isl=/mingw --enable-nls --with-pkgversion='MinGW.org GCC Build-2'
Thread model: win32
gcc version 9.2.0 (MinGW.org GCC Build-2) 
COMPILER_PATH=c:/mingw/bin/../libexec/gcc/mingw32/9.2.0/;c:/mingw/bin/../libexec/gcc/;c:/mingw/bin/../lib/gcc/mingw32/9.2.0/../../../../mingw32/bin/
LIBRARY_PATH=c:/mingw/bin/../lib/gcc/mingw32/9.2.0/;c:/mingw/bin/../lib/gcc/;c:/mingw/bin/../lib/gcc/mingw32/9.2.0/../../../../mingw32/lib/;c:/mingw/bin/../lib/gcc/mingw32/9.2.0/../../../
COLLECT_GCC_OPTIONS='-v' '-o' 'cmTC_f7cbe.exe' '-shared-libgcc' '-mtune=generic' '-march=i586'
 c:/mingw/bin/../libexec/gcc/mingw32/9.2.0/collect2.exe -plugin c:/mingw/bin/../libexec/gcc/mingw32/9.2.0/liblto_plugin-0.dll -plugin-opt=c:/mingw/bin/../libexec/gcc/mingw32/9.2.0/lto-wrapper.exe -plugin-opt=-fresolution=C:\Users\Username\AppData\Local\Temp\ccP6SAns.res -plugin-opt=-pass-through=-lmingw32 -plugin-opt=-pass-through=-lmingwex -plugin-opt=-pass-through=-lmingw32 -plugin-opt=-pass-through=-lmingwex -plugin-opt=-pass-through=-lgcc_s -plugin-opt=-pass-through=-lgcc -plugin-opt=-pass-through=-lmoldname -plugin-opt=-pass-through=-lmsvcrt -plugin-opt=-pass-through=-ladvapi32 -plugin-opt=-pass-through=-lshell32 -plugin-opt=-pass-through=-luser32 -plugin-opt=-pass-through=-lkernel32 -plugin-opt=-pass-through=-lmingw32 -plugin-opt=-pass-through=-lmingwex -plugin-opt=-pass-through=-lmingw32 -plugin-opt=-pass-through=-lmingwex -plugin-opt=-pass-through=-lgcc_s -plugin-opt=-pass-through=-lgcc -plugin-opt=-pass-through=-lmoldname -plugin-opt=-pass-through=-lmsvcrt -Bdynamic -u ___register_frame_info -u ___deregister_frame_info -o cmTC_f7cbe.exe c:/mingw/bin/../lib/gcc/mingw32/9.2.0/../../../crt2.o c:/mingw/bin/../lib/gcc/mingw32/9.2.0/crtbegin.o -Lc:/mingw/bin/../lib/gcc/mingw32/9.2.0 -Lc:/mingw/bin/../lib/gcc -Lc:/mingw/bin/../lib/gcc/mingw32/9.2.0/../../../../mingw32/lib -Lc:/mingw/bin/../lib/gcc/mingw32/9.2.0/../../.. --whole-archive CMakeFiles\cmTC_f7cbe.dir/objects.a --no-whole-archive --out-implib libcmTC_f7cbe.dll.a --major-image-version 0 --minor-image-version 0 -lstdc++ -lmingw32 -lmingwex -lmingw32 -lmingwex -lgcc_s -lgcc -lmoldname -lmsvcrt -ladvapi32 -lshell32 -luser32 -lkernel32 -lmingw32 -lmingwex -lmingw32 -lmingwex -lgcc_s -lgcc -lmoldname -lmsvcrt c:/mingw/bin/../lib/gcc/mingw32/9.2.0/crtend.o
COLLECT_GCC_OPTIONS='-v' '-o' 'cmTC_f7cbe.exe' '-shared-libgcc' '-mtune=generic' '-march=i586'
mingw32-make.exe[1]: Leaving directory 'G:/GameEngine/cmake-build-debug/CMakeFiles/CMakeTmp'



Parsed CXX implicit include dir info from above output: rv=done
  found start of include info
  found start of implicit include info
    add: [c:/mingw/bin/../lib/gcc/mingw32/9.2.0/include/c++]
    add: [c:/mingw/bin/../lib/gcc/mingw32/9.2.0/include/c++/mingw32]
    add: [c:/mingw/bin/../lib/gcc/mingw32/9.2.0/include/c++/backward]
    add: [c:/mingw/bin/../lib/gcc/mingw32/9.2.0/include]
    add: [c:/mingw/bin/../lib/gcc/mingw32/9.2.0/../../../../include]
    add: [c:/mingw/bin/../lib/gcc/mingw32/9.2.0/include-fixed]
  end of search list found
  collapse include dir [c:/mingw/bin/../lib/gcc/mingw32/9.2.0/include/c++] ==> [C:/MinGW/lib/gcc/mingw32/9.2.0/include/c++]
  collapse include dir [c:/mingw/bin/../lib/gcc/mingw32/9.2.0/include/c++/mingw32] ==> [C:/MinGW/lib/gcc/mingw32/9.2.0/include/c++/mingw32]
  collapse include dir [c:/mingw/bin/../lib/gcc/mingw32/9.2.0/include/c++/backward] ==> [C:/MinGW/lib/gcc/mingw32/9.2.0/include/c++/backward]
  collapse include dir [c:/mingw/bin/../lib/gcc/mingw32/9.2.0/include] ==> [C:/MinGW/lib/gcc/mingw32/9.2.0/include]
  collapse include dir [c:/mingw/bin/../lib/gcc/mingw32/9.2.0/../../../../include] ==> [C:/MinGW/include]
  collapse include dir [c:/mingw/bin/../lib/gcc/mingw32/9.2.0/include-fixed] ==> [C:/MinGW/lib/gcc/mingw32/9.2.0/include-fixed]
  implicit include dirs: [C:/MinGW/lib/gcc/mingw32/9.2.0/include/c++;C:/MinGW/lib/gcc/mingw32/9.2.0/include/c++/mingw32;C:/MinGW/lib/gcc/mingw32/9.2.0/include/c++/backward;C:/MinGW/lib/gcc/mingw32/9.2.0/include;C:/MinGW/include;C:/MinGW/lib/gcc/mingw32/9.2.0/include-fixed]


Parsed CXX implicit link information from above output:
  link line regex: [^( *|.*[/\])(ld\.exe|CMAKE_LINK_STARTFILE-NOTFOUND|([^/\]+-)?ld|collect2)[^/\]*( |$)]
  ignore line: [Change Dir: G:/GameEngine/cmake-build-debug/CMakeFiles/CMakeTmp]
  ignore line: []
  ignore line: [Run Build Command(s):C:/MinGW/bin/mingw32-make.exe cmTC_f7cbe/fast && C:/MinGW/bin/mingw32-make.exe  -f CMakeFiles\cmTC_f7cbe.dir\build.make CMakeFiles/cmTC_f7cbe.dir/build]
  ignore line: [mingw32-make.exe[1]: Entering directory 'G:/GameEngine/cmake-build-debug/CMakeFiles/CMakeTmp']
  ignore line: [Building CXX object CMakeFiles/cmTC_f7cbe.dir/CMakeCXXCompilerABI.cpp.obj]
  ignore line: [C:\MinGW\bin\g++.exe    -v -o CMakeFiles\cmTC_f7cbe.dir\CMakeCXXCompilerABI.cpp.obj -c "F:\CLion 2020.2.4\bin\cmake\win\share\cmake-3.17\Modules\CMakeCXXCompilerABI.cpp"]
  ignore line: [Using built-in specs.]
  ignore line: [COLLECT_GCC=C:\MinGW\bin\g++.exe]
  ignore line: [Target: mingw32]
  ignore line: [Configured with: ../src/gcc-9.2.0/configure --build=x86_64-pc-linux-gnu --host=mingw32 --target=mingw32 --disable-win32-registry --with-arch=i586 --with-tune=generic --enable-static --enable-shared --enable-threads --enable-languages=c c++ objc obj-c++ fortran ada --with-dwarf2 --disable-sjlj-exceptions --enable-version-specific-runtime-libs --enable-libgomp --disable-libvtv --with-libiconv-prefix=/mingw --with-libintl-prefix=/mingw --enable-libstdcxx-debug --disable-build-format-warnings --prefix=/mingw --with-gmp=/mingw --with-mpfr=/mingw --with-mpc=/mingw --with-isl=/mingw --enable-nls --with-pkgversion='MinGW.org GCC Build-2']
  ignore line: [Thread model: win32]
  ignore line: [gcc version 9.2.0 (MinGW.org GCC Build-2) ]
  ignore line: [COLLECT_GCC_OPTIONS='-v' '-o' 'CMakeFiles\cmTC_f7cbe.dir\CMakeCXXCompilerABI.cpp.obj' '-c' '-shared-libgcc' '-mtune=generic' '-march=i586']
  ignore line: [ c:/mingw/bin/../libexec/gcc/mingw32/9.2.0/cc1plus.exe -quiet -v -iprefix c:\mingw\bin\../lib/gcc/mingw32/9.2.0/ F:\CLion 2020.2.4\bin\cmake\win\share\cmake-3.17\Modules\CMakeCXXCompilerABI.cpp -quiet -dumpbase CMakeCXXCompilerABI.cpp -mtune=generic -march=i586 -auxbase-strip CMakeFiles\cmTC_f7cbe.dir\CMakeCXXCompilerABI.cpp.obj -version -o C:\Users\Username\AppData\Local\Temp\cc6Tbm27.s]
  ignore line: [GNU C++14 (MinGW.org GCC Build-2) version 9.2.0 (mingw32)]
  ignore line: [	compiled by GNU C version 9.2.0  GMP version 6.1.2  MPFR version 4.0.2  MPC version 1.1.0  isl version isl-0.21-GMP]
  ignore line: []
  ignore line: [GGC heuristics: --param ggc-min-expand=100 --param ggc-min-heapsize=131072]
  ignore line: [ignoring nonexistent directory "c:\mingw\bin\../lib/gcc/mingw32/9.2.0/../../../../mingw32/include"]
  ignore line: [ignoring duplicate directory "c:/mingw/lib/gcc/../../lib/gcc/mingw32/9.2.0/include/c++"]
  ignore line: [ignoring duplicate directory "c:/mingw/lib/gcc/../../lib/gcc/mingw32/9.2.0/include/c++/mingw32"]
  ignore line: [ignoring duplicate directory "c:/mingw/lib/gcc/../../lib/gcc/mingw32/9.2.0/include/c++/backward"]
  ignore line: [ignoring duplicate directory "c:/mingw/lib/gcc/../../lib/gcc/mingw32/9.2.0/include"]
  ignore line: [ignoring nonexistent directory "/mingw/include"]
  ignore line: [ignoring duplicate directory "c:/mingw/lib/gcc/../../include"]
  ignore line: [ignoring duplicate directory "c:/mingw/lib/gcc/../../lib/gcc/mingw32/9.2.0/include-fixed"]
  ignore line: [ignoring nonexistent directory "c:/mingw/lib/gcc/../../lib/gcc/mingw32/9.2.0/../../../../mingw32/include"]
  ignore line: [ignoring nonexistent directory "/mingw/include"]
  ignore line: [#include "..." search starts here:]
  ignore line: [#include <...> search starts here:]
  ignore line: [ c:\mingw\bin\../lib/gcc/mingw32/9.2.0/include/c++]
  ignore line: [ c:\mingw\bin\../lib/gcc/mingw32/9.2.0/include/c++/mingw32]
  ignore line: [ c:\mingw\bin\../lib/gcc/mingw32/9.2.0/include/c++/backward]
  ignore line: [ c:\mingw\bin\../lib/gcc/mingw32/9.2.0/include]
  ignore line: [ c:\mingw\bin\../lib/gcc/mingw32/9.2.0/../../../../include]
  ignore line: [ c:\mingw\bin\../lib/gcc/mingw32/9.2.0/include-fixed]
  ignore line: [End of search list.]
  ignore line: [GNU C++14 (MinGW.org GCC Build-2) version 9.2.0 (mingw32)]
  ignore line: [	compiled by GNU C version 9.2.0  GMP version 6.1.2  MPFR version 4.0.2  MPC version 1.1.0  isl version isl-0.21-GMP]
  ignore line: []
  ignore line: [GGC heuristics: --param ggc-min-expand=100 --param ggc-min-heapsize=131072]
  ignore line: [Compiler executable checksum: cb31672760a9c1b42d1ddb86616116cd]
  ignore line: [COLLECT_GCC_OPTIONS='-v' '-o' 'CMakeFiles\cmTC_f7cbe.dir\CMakeCXXCompilerABI.cpp.obj' '-c' '-shared-libgcc' '-mtune=generic' '-march=i586']
  ignore line: [ c:/mingw/bin/../lib/gcc/mingw32/9.2.0/../../../../mingw32/bin/as.exe -v -o CMakeFiles\cmTC_f7cbe.dir\CMakeCXXCompilerABI.cpp.obj C:\Users\Username\AppData\Local\Temp\cc6Tbm27.s]
  ignore line: [GNU assembler version 2.32 (mingw32) using BFD version (GNU Binutils) 2.32]
  ignore line: [COMPILER_PATH=c:/mingw/bin/../libexec/gcc/mingw32/9.2.0/]
  ignore line: [c:/mingw/bin/../libexec/gcc/]
  ignore line: [c:/mingw/bin/../lib/gcc/mingw32/9.2.0/../../../../mingw32/bin/]
  ignore line: [LIBRARY_PATH=c:/mingw/bin/../lib/gcc/mingw32/9.2.0/]
  ignore line: [c:/mingw/bin/../lib/gcc/]
  ignore line: [c:/mingw/bin/../lib/gcc/mingw32/9.2.0/../../../../mingw32/lib/]
  ignore line: [c:/mingw/bin/../lib/gcc/mingw32/9.2.0/../../../]
  ignore line: [COLLECT_GCC_OPTIONS='-v' '-o' 'CMakeFiles\cmTC_f7cbe.dir\CMakeCXXCompilerABI.cpp.obj' '-c' '-shared-libgcc' '-mtune=generic' '-march=i586']
  ignore line: [Linking CXX executable cmTC_f7cbe.exe]
  ignore line: ["F:\CLion 2020.2.4\bin\cmake\win\bin\cmake.exe" -E cmake_link_script CMakeFiles\cmTC_f7cbe.dir\link.txt --verbose=1]
  ignore line: ["F:\CLion 2020.2.4\bin\cmake\win\bin\cmake.exe" -E rm -f CMakeFiles\cmTC_f7cbe.dir/objects.a]
  ignore line: [C:\MinGW\bin\ar.exe cr CMakeFiles\cmTC_f7cbe.dir/objects.a @CMakeFiles\cmTC_f7cbe.dir\objects1.rsp]
  ignore line: [C:\MinGW\bin\g++.exe     -v -Wl --whole-archive CMakeFiles\cmTC_f7cbe.dir/objects.a -Wl --no-whole-archive  -o cmTC_f7cbe.exe -Wl --out-implib libcmTC_f7cbe.dll.a -Wl --major-image-version 0 --minor-image-version 0 ]
  ignore line: [Using built-in specs.]
  ignore line: [COLLECT_GCC=C:\MinGW\bin\g++.exe]
  ignore line: [COLLECT_LTO_WRAPPER=c:/mingw/bin/../libexec/gcc/mingw32/9.2.0/lto-wrapper.exe]
  ignore line: [Target: mingw32]
  ignore line: [Configured with: ../src/gcc-9.2.0/configure --build=x86_64-pc-linux-gnu --host=mingw32 --target=mingw32 --disable-win32-registry --with-arch=i586 --with-tune=generic --enable-static --enable-shared --enable-threads --enable-languages=c c++ objc obj-c++ fortran ada --with-dwarf2 --disable-sjlj-exceptions --enable-version-specific-runtime-libs --enable-libgomp --disable-libvtv --with-libiconv-prefix=/mingw --with-libintl-prefix=/mingw --enable-libstdcxx-debug --disable-build-format-warnings --prefix=/mingw --with-gmp=/mingw --with-mpfr=/mingw --with-mpc=/mingw --with-isl=/mingw --enable-nls --with-pkgversion='MinGW.org GCC Build-2']
  ignore line: [Thread model: win32]
  ignore line: [gcc version 9.2.0 (MinGW.org GCC Build-2) ]
  ignore line: [COMPILER_PATH=c:/mingw/bin/../libexec/gcc/mingw32/9.2.0/]
  ignore line: [c:/mingw/bin/../libexec/gcc/]
  ignore line: [c:/mingw/bin/../lib/gcc/mingw32/9.2.0/../../../../mingw32/bin/]
  ignore line: [LIBRARY_PATH=c:/mingw/bin/../lib/gcc/mingw32/9.2.0/]
  ignore line: [c:/mingw/bin/../lib/gcc/]
  ignore line: [c:/mingw/bin/../lib/gcc/mingw32/9.2.0/../../../../mingw32/lib/]
  ignore line: [c:/mingw/bin/../lib/gcc/mingw32/9.2.0/../../../]
  ignore line: [COLLECT_GCC_OPTIONS='-v' '-o' 'cmTC_f7cbe.exe' '-shared-libgcc' '-mtune=generic' '-march=i586']
  link line: [ c:/mingw/bin/../libexec/gcc/mingw32/9.2.0/collect2.exe -plugin c:/mingw/bin/../libexec/gcc/mingw32/9.2.0/liblto_plugin-0.dll -plugin-opt=c:/mingw/bin/../libexec/gcc/mingw32/9.2.0/lto-wrapper.exe -plugin-opt=-fresolution=C:\Users\Username\AppData\Local\Temp\ccP6SAns.res -plugin-opt=-pass-through=-lmingw32 -plugin-opt=-pass-through=-lmingwex -plugin-opt=-pass-through=-lmingw32 -plugin-opt=-pass-through=-lmingwex -plugin-opt=-pass-through=-lgcc_s -plugin-opt=-pass-through=-lgcc -plugin-opt=-pass-through=-lmoldname -plugin-opt=-pass-through=-lmsvcrt -plugin-opt=-pass-through=-ladvapi32 -plugin-opt=-pass-through=-lshell32 -plugin-opt=-pass-through=-luser32 -plugin-opt=-pass-through=-lkernel32 -plugin-opt=-pass-through=-lmingw32 -plugin-opt=-pass-through=-lmingwex -plugin-opt=-pass-through=-lmingw32 -plugin-opt=-pass-through=-lmingwex -plugin-opt=-pass-through=-lgcc_s -plugin-opt=-pass-through=-lgcc -plugin-opt=-pass-through=-lmoldname -plugin-opt=-pass-through=-lmsvcrt -Bdynamic -u ___register_frame_info -u ___deregister_frame_info -o cmTC_f7cbe.exe c:/mingw/bin/../lib/gcc/mingw32/9.2.0/../../../crt2.o c:/mingw/bin/../lib/gcc/mingw32/9.2.0/crtbegin.o -Lc:/mingw/bin/../lib/gcc/mingw32/9.2.0 -Lc:/mingw/bin/../lib/gcc -Lc:/mingw/bin/../lib/gcc/mingw32/9.2.0/../../../../mingw32/lib -Lc:/mingw/bin/../lib/gcc/mingw32/9.2.0/../../.. --whole-archive CMakeFiles\cmTC_f7cbe.dir/objects.a --no-whole-archive --out-implib libcmTC_f7cbe.dll.a --major-image-version 0 --minor-image-version 0 -lstdc++ -lmingw32 -lmingwex -lmingw32 -lmingwex -lgcc_s -lgcc -lmoldname -lmsvcrt -ladvapi32 -lshell32 -luser32 -lkernel32 -lmingw32 -lmingwex -lmingw32 -lmingwex -lgcc_s -lgcc -lmoldname -lmsvcrt c:/mingw/bin/../lib/gcc/mingw32/9.2.0/crtend.o]
    arg [c:/mingw/bin/../libexec/gcc/mingw32/9.2.0/collect2.exe] ==> ignore
    arg [-plugin] ==> ignore
    arg [c:/mingw/bin/../libexec/gcc/mingw32/9.2.0/liblto_plugin-0.dll] ==> ignore
    arg [-plugin-opt=c:/mingw/bin/../libexec/gcc/mingw32/9.2.0/lto-wrapper.exe] ==> ignore
    arg [-plugin-opt=-fresolution=C:\Users\Username\AppData\Local\Temp\ccP6SAns.res] ==> ignore
    arg [-plugin-opt=-pass-through=-lmingw32] ==> ignore
    arg [-plugin-opt=-pass-through=-lmingwex] ==> ignore
    arg [-plugin-opt=-pass-through=-lmingw32] ==> ignore
    arg [-plugin-opt=-pass-through=-lmingwex] ==> ignore
    arg [-plugin-opt=-pass-through=-lgcc_s] ==> ignore
    arg [-plugin-opt=-pass-through=-lgcc] ==> ignore
    arg [-plugin-opt=-pass-through=-lmoldname] ==> ignore
    arg [-plugin-opt=-pass-through=-lmsvcrt] ==> ignore
    arg [-plugin-opt=-pass-through=-ladvapi32] ==> ignore
    arg [-plugin-opt=-pass-through=-lshell32] ==> ignore
    arg [-plugin-opt=-pass-through=-luser32] ==> ignore
    arg [-plugin-opt=-pass-through=-lkernel32] ==> ignore
    arg [-plugin-opt=-pass-through=-lmingw32] ==> ignore
    arg [-plugin-opt=-pass-through=-lmingwex] ==> ignore
    arg [-plugin-opt=-pass-through=-lmingw32] ==> ignore
    arg [-plugin-opt=-pass-through=-lmingwex] ==> ignore
    arg [-plugin-opt=-pass-through=-lgcc_s] ==> ignore
    arg [-plugin-opt=-pass-through=-lgcc] ==> ignore
    arg [-plugin-opt=-pass-through=-lmoldname] ==> ignore
    arg [-plugin-opt=-pass-through=-lmsvcrt] ==> ignore
    arg [-Bdynamic] ==> ignore
    arg [-u] ==> ignore
    arg [___register_frame_info] ==> ignore
    arg [-u] ==> ignore
    arg [___deregister_frame_info] ==> ignore
    arg [-o] ==> ignore
    arg [cmTC_f7cbe.exe] ==> ignore
    arg [c:/mingw/bin/../lib/gcc/mingw32/9.2.0/../../../crt2.o] ==> ignore
    arg [c:/mingw/bin/../lib/gcc/mingw32/9.2.0/crtbegin.o] ==> ignore
    arg [-Lc:/mingw/bin/../lib/gcc/mingw32/9.2.0] ==> dir [c:/mingw/bin/../lib/gcc/mingw32/9.2.0]
    arg [-Lc:/mingw/bin/../lib/gcc] ==> dir [c:/mingw/bin/../lib/gcc]
    arg [-Lc:/mingw/bin/../lib/gcc/mingw32/9.2.0/../../../../mingw32/lib] ==> dir [c:/mingw/bin/../lib/gcc/mingw32/9.2.0/../../../../mingw32/lib]
    arg [-Lc:/mingw/bin/../lib/gcc/mingw32/9.2.0/../../..] ==> dir [c:/mingw/bin/../lib/gcc/mingw32/9.2.0/../../..]
    arg [--whole-archive] ==> ignore
    arg [CMakeFiles\cmTC_f7cbe.dir/objects.a] ==> ignore
    arg [--no-whole-archive] ==> ignore
    arg [--out-implib] ==> ignore
    arg [libcmTC_f7cbe.dll.a] ==> ignore
    arg [--major-image-version] ==> ignore
    arg [0] ==> ignore
    arg [--minor-image-version] ==> ignore
    arg [0] ==> ignore
    arg [-lstdc++] ==> lib [stdc++]
    arg [-lmingw32] ==> lib [mingw32]
    arg [-lmingwex] ==> lib [mingwex]
    arg [-lmingw32] ==> lib [mingw32]
    arg [-lmingwex] ==> lib [mingwex]
    arg [-lgcc_s] ==> lib [gcc_s]
    arg [-lgcc] ==> lib [gcc]
    arg [-lmoldname] ==> lib [moldname]
    arg [-lmsvcrt] ==> lib [msvcrt]
    arg [-ladvapi32] ==> lib [advapi32]
    arg [-lshell32] ==> lib [shell32]
    arg [-luser32] ==> lib [user32]
    arg [-lkernel32] ==> lib [kernel32]
    arg [-lmingw32] ==> lib [mingw32]
    arg [-lmingwex] ==> lib [mingwex]
    arg [-lmingw32] ==> lib [mingw32]
    arg [-lmingwex] ==> lib [mingwex]
    arg [-lgcc_s] ==> lib [gcc_s]
    arg [-lgcc] ==> lib [gcc]
    arg [-lmoldname] ==> lib [moldname]
    arg [-lmsvcrt] ==> lib [msvcrt]
    arg [c:/mingw/bin/../lib/gcc/mingw32/9.2.0/crtend.o] ==> ignore
  remove lib [msvcrt]
  remove lib [msvcrt]
  collapse library dir [c:/mingw/bin/../lib/gcc/mingw32/9.2.0] ==> [C:/MinGW/lib/gcc/mingw32/9.2.0]
  collapse library dir [c:/mingw/bin/../lib/gcc] ==> [C:/MinGW/lib/gcc]
  collapse library dir [c:/mingw/bin/../lib/gcc/mingw32/9.2.0/../../../../mingw32/lib] ==> [C:/MinGW/mingw32/lib]
  collapse library dir [c:/mingw/bin/../lib/gcc/mingw32/9.2.0/../../..] ==> [C:/MinGW/lib]
  implicit libs: [stdc++;mingw32;mingwex;mingw32;mingwex;gcc_s;gcc;moldname;advapi32;shell32;user32;kernel32;mingw32;mingwex;mingw32;mingwex;gcc_s;gcc;moldname]
  implicit dirs: [C:/MinGW/lib/gcc/mingw32/9.2.0;C:/MinGW/lib/gcc;C:/MinGW/mingw32/lib;C:/MinGW/lib]
  implicit fwks: []


Compiling the C compiler identification source file "CMakeCCompilerId.c" succeeded.
Compiler: C:/MinGW/bin/gcc.exe 
Build flags: 
Id flags:  

The output was:
0


Compilation of the C compiler identification source "CMakeCCompilerId.c" produced "a.exe"

The C compiler identification is GNU, found in "G:/GameEngine/cmake-build-debug/CMakeFiles/3.17.3/CompilerIdC/a.exe"

Determining if the C compiler works passed with the following output:
Change Dir: G:/GameEngine/cmake-build-debug/CMakeFiles/CMakeTmp

Run Build Command(s):C:/MinGW/bin/mingw32-make.exe cmTC_9dbb8/fast && C:/MinGW/bin/mingw32-make.exe  -f CMakeFiles\cmTC_9dbb8.dir\build.make CMakeFiles/cmTC_9dbb8.dir/build
mingw32-make.exe[1]: Entering directory 'G:/GameEngine/cmake-build-debug/CMakeFiles/CMakeTmp'
Building C object CMakeFiles/cmTC_9dbb8.dir/testCCompiler.c.obj
C:\MinGW\bin\gcc.exe    -o CMakeFiles\cmTC_9dbb8.dir\testCCompiler.c.obj   -c G:\GameEngine\cmake-build-debug\CMakeFiles\CMakeTmp\testCCompiler.c
Linking C executable cmTC_9dbb8.exe
"F:\CLion 2020.2.4\bin\cmake\win\bin\cmake.exe" -E cmake_link_script CMakeFiles\cmTC_9dbb8.dir\link.txt --verbose=1
"F:\CLion 2020.2.4\bin\cmake\win\bin\cmake.exe" -E rm -f CMakeFiles\cmTC_9dbb8.dir/objects.a
C:\MinGW\bin\ar.exe cr CMakeFiles\cmTC_9dbb8.dir/objects.a @CMakeFiles\cmTC_9dbb8.dir\objects1.rsp
C:\MinGW\bin\gcc.exe      -Wl,--whole-archive CMakeFiles\cmTC_9dbb8.dir/objects.a -Wl,--no-whole-archive  -o cmTC_9dbb8.exe -Wl,--out-implib,libcmTC_9dbb8.dll.a -Wl,--major-image-version,0,--minor-image-version,0 @CMakeFiles\cmTC_9dbb8.dir\linklibs.rsp
mingw32-make.exe[1]: Leaving directory 'G:/GameEngine/cmake-build-debug/CMakeFiles/CMakeTmp'



Detecting C compiler ABI info compiled with the following output:
Change Dir: G:/GameEngine/cmake-build-debug/CMakeFiles/CMakeTmp

Run Build Command(s):C:/MinGW/bin/mingw32-make.exe cmTC_e7256/fast && C:/MinGW/bin/mingw32-make.exe  -f CMakeFiles\cmTC_e7256.dir\build.make CMakeFiles/cmTC_e7256.dir/build
mingw32-make.exe[1]: Entering directory 'G:/GameEngine/cmake-build-debug/CMakeFiles/CMakeTmp'
Building C object CMakeFiles/cmTC_e7256.dir/CMakeCCompilerABI.c.obj
C:\MinGW\bin\gcc.exe   -v -o CMakeFiles\cmTC_e7256.dir\CMakeCCompilerABI.c.obj   -c "F:\CLion 2020.2.4\bin\cmake\win\share\cmake-3.17\Modules\CMakeCCompilerABI.c"
Using built-in specs.
COLLECT_GCC=C:\MinGW\bin\gcc.exe
Target: mingw32
Configured with: ../src/gcc-9.2.0/configure --build=x86_64-pc-linux-gnu --host=mingw32 --target=mingw32 --disable-win32-registry --with-arch=i586 --with-tune=generic --enable-static --enable-shared --enable-threads --enable-languages=c,c++,objc,obj-c++,fortran,ada --with-dwarf2 --disable-sjlj-exceptions --enable-version-specific-runtime-libs --enable-libgomp --disable-libvtv --with-libiconv-prefix=/mingw --with-libintl-prefix=/mingw --enable-libstdcxx-debug --disable-build-format-warnings --prefix=/mingw --with-gmp=/mingw --with-mpfr=/mingw --with-mpc=/mingw --with-isl=/mingw --enable-nls --with-pkgversion='MinGW.org GCC Build-2'
Thread model: win32
gcc version 9.2.0 (MinGW.org GCC Build-2) 
COLLECT_GCC_OPTIONS='-v' '-o' 'CMakeFiles\cmTC_e7256.dir\CMakeCCompilerABI.c.obj' '-c' '-mtune=generic' '-march=i586'
 c:/mingw/bin/../libexec/gcc/mingw32/9.2.0/cc1.exe -quiet -v -iprefix c:\mingw\bin\../lib/gcc/mingw32/9.2.0/ F:\CLion 2020.2.4\bin\cmake\win\share\cmake-3.17\Modules\CMakeCCompilerABI.c -quiet -dumpbase CMakeCCompilerABI.c -mtune=generic -march=i586 -auxbase-strip CMakeFiles\cmTC_e7256.dir\CMakeCCompilerABI.c.obj -version -o C:\Users\Username\AppData\Local\Temp\ccUqD9GZ.s
GNU C17 (MinGW.org GCC Build-2) version 9.2.0 (mingw32)
	compiled by GNU C version 9.2.0, GMP version 6.1.2, MPFR version 4.0.2, MPC version 1.1.0, isl version isl-0.21-GMP

GGC heuristics: --param ggc-min-expand=100 --param ggc-min-heapsize=131072
ignoring nonexistent directory "c:\mingw\bin\../lib/gcc/mingw32/9.2.0/../../../../mingw32/include"
ignoring duplicate directory "c:/mingw/lib/gcc/../../lib/gcc/mingw32/9.2.0/include"
ignoring nonexistent directory "/mingw/include"
ignoring duplicate directory "c:/mingw/lib/gcc/../../include"
ignoring duplicate directory "c:/mingw/lib/gcc/../../lib/gcc/mingw32/9.2.0/include-fixed"
ignoring nonexistent directory "c:/mingw/lib/gcc/../../lib/gcc/mingw32/9.2.0/../../../../mingw32/include"
ignoring nonexistent directory "/mingw/include"
#include "..." search starts here:
#include <...> search starts here:
 c:\mingw\bin\../lib/gcc/mingw32/9.2.0/include
 c:\mingw\bin\../lib/gcc/mingw32/9.2.0/../../../../include
 c:\mingw\bin\../lib/gcc/mingw32/9.2.0/include-fixed
End of search list.
GNU C17 (MinGW.org GCC Build-2) version 9.2.0 (mingw32)
	compiled by GNU C version 9.2.0, GMP version 6.1.2, MPFR version 4.0.2, MPC version 1.1.0, isl version isl-0.21-GMP

GGC heuristics: --param ggc-min-expand=100 --param ggc-min-heapsize=131072
Compiler executable checksum: a3c9f0fbd759fce24f2da2d17091ee0c
COLLECT_GCC_OPTIONS='-v' '-o' 'CMakeFiles\cmTC_e7256.dir\CMakeCCompilerABI.c.obj' '-c' '-mtune=generic' '-march=i586'
 c:/mingw/bin/../lib/gcc/mingw32/9.2.0/../../../../mingw32/bin/as.exe -v -o CMakeFiles\cmTC_e7256.dir\CMakeCCompilerABI.c.obj C:\Users\Username\AppData\Local\Temp\ccUqD9GZ.s
GNU assembler version 2.32 (mingw32) using BFD version (GNU Binutils) 2.32
COMPILER_PATH=c:/mingw/bin/../libexec/gcc/mingw32/9.2.0/;c:/mingw/bin/../libexec/gcc/;c:/mingw/bin/../lib/gcc/mingw32/9.2.0/../../../../mingw32/bin/
LIBRARY_PATH=c:/mingw/bin/../lib/gcc/mingw32/9.2.0/;c:/mingw/bin/../lib/gcc/;c:/mingw/bin/../lib/gcc/mingw32/9.2.0/../../../../mingw32/lib/;c:/mingw/bin/../lib/gcc/mingw32/9.2.0/../../../
COLLECT_GCC_OPTIONS='-v' '-o' 'CMakeFiles\cmTC_e7256.dir\CMakeCCompilerABI.c.obj' '-c' '-mtune=generic' '-march=i586'
Linking C executable cmTC_e7256.exe
"F:\CLion 2020.2.4\bin\cmake\win\bin\cmake.exe" -E cmake_link_script CMakeFiles\cmTC_e7256.dir\link.txt --verbose=1
"F:\CLion 2020.2.4\bin\cmake\win\bin\cmake.exe" -E rm -f CMakeFiles\cmTC_e7256.dir/objects.a
C:\MinGW\bin\ar.exe cr CMakeFiles\cmTC_e7256.dir/objects.a @CMakeFiles\cmTC_e7256.dir\objects1.rsp
C:\MinGW\bin\gcc.exe     -v -Wl,--whole-archive CMakeFiles\cmTC_e7256.dir/objects.a -Wl,--no-whole-archive  -o cmTC_e7256.exe -Wl,--out-implib,libcmTC_e7256.dll.a -Wl,--major-image-version,0,--minor-image-version,0 
Using built-in specs.
COLLECT_GCC=C:\MinGW\bin\gcc.exe
COLLECT_LTO_WRAPPER=c:/mingw/bin/../libexec/gcc/mingw32/9.2.0/lto-wrapper.exe
Target: mingw32
Configured with: ../src/gcc-9.2.0/configure --build=x86_64-pc-linux-gnu --host=mingw32 --target=mingw32 --disable-win32-registry --with-arch=i586 --with-tune=generic --enable-static --enable-shared --enable-threads --enable-languages=c,c++,objc,obj-c++,fortran,ada --with-dwarf2 --disable-sjlj-exceptions --enable-version-specific-runtime-libs --enable-libgomp --disable-libvtv --with-libiconv-prefix=/mingw --with-libintl-prefix=/mingw --enable-libstdcxx-debug --disable-build-format-warnings --prefix=/mingw --with-gmp=/mingw --with-mpfr=/mingw --with-mpc=/mingw --with-isl=/mingw --enable-nls --with-pkgversion='MinGW.org GCC Build-2'
Thread model: win32
gcc version 9.2.0 (MinGW.org GCC Build-2) 
COMPILER_PATH=c:/mingw/bin/../libexec/gcc/mingw32/9.2.0/;c:/mingw/bin/../libexec/gcc/;c:/mingw/bin/../lib/gcc/mingw32/9.2.0/../../../../mingw32/bin/
LIBRARY_PATH=c:/mingw/bin/../lib/gcc/mingw32/9.2.0/;c:/mingw/bin/../lib/gcc/;c:/mingw/bin/../lib/gcc/mingw32/9.2.0/../../../../mingw32/lib/;c:/mingw/bin/../lib/gcc/mingw32/9.2.0/../../../
COLLECT_GCC_OPTIONS='-v' '-o' 'cmTC_e7256.exe' '-mtune=generic' '-march=i586'
 c:/mingw/bin/../libexec/gcc/mingw32/9.2.0/collect2.exe -plugin c:/mingw/bin/../libexec/gcc/mingw32/9.2.0/liblto_plugin-0.dll -plugin-opt=c:/mingw/bin/../libexec/gcc/mingw32/9.2.0/lto-wrapper.exe -plugin-opt=-fresolution=C:\Users\Username\AppData\Local\Temp\cc43N1qe.res -plugin-opt=-pass-through=-lmingw32 -plugin-opt=-pass-through=-lmingwex -plugin-opt=-pass-through=-lmingw32 -plugin-opt=-pass-through=-lmingwex -plugin-opt=-pass-through=-lgcc -plugin-opt=-pass-through=-lgcc_eh -plugin-opt=-pass-through=-lmoldname -plugin-opt=-pass-through=-lmsvcrt -plugin-opt=-pass-through=-ladvapi32 -plugin-opt=-pass-through=-lshell32 -plugin-opt=-pass-through=-luser32 -plugin-opt=-pass-through=-lkernel32 -plugin-opt=-pass-through=-lmingw32 -plugin-opt=-pass-through=-lmingwex -plugin-opt=-pass-through=-lmingw32 -plugin-opt=-pass-through=-lmingwex -plugin-opt=-pass-through=-lgcc -plugin-opt=-pass-through=-lgcc_eh -plugin-opt=-pass-through=-lmoldname -plugin-opt=-pass-through=-lmsvcrt -Bdynamic -o cmTC_e7256.exe c:/mingw/bin/../lib/gcc/mingw32/9.2.0/../../../crt2.o c:/mingw/bin/../lib/gcc/mingw32/9.2.0/crtbegin.o -Lc:/mingw/bin/../lib/gcc/mingw32/9.2.0 -Lc:/mingw/bin/../lib/gcc -Lc:/mingw/bin/../lib/gcc/mingw32/9.2.0/../../../../mingw32/lib -Lc:/mingw/bin/../lib/gcc/mingw32/9.2.0/../../.. --whole-archive CMakeFiles\cmTC_e7256.dir/objects.a --no-whole-archive --out-implib libcmTC_e7256.dll.a --major-image-version 0 --minor-image-version 0 -lmingw32 -lmingwex -lmingw32 -lmingwex -lgcc -lgcc_eh -lmoldname -lmsvcrt -ladvapi32 -lshell32 -luser32 -lkernel32 -lmingw32 -lmingwex -lmingw32 -lmingwex -lgcc -lgcc_eh -lmoldname -lmsvcrt c:/mingw/bin/../lib/gcc/mingw32/9.2.0/crtend.o
COLLECT_GCC_OPTIONS='-v' '-o' 'cmTC_e7256.exe' '-mtune=generic' '-march=i586'
mingw32-make.exe[1]: Leaving directory 'G:/GameEngine/cmake-build-debug/CMakeFiles/CMakeTmp'



Parsed C implicit include dir info from above output: rv=done
  found start of include info
  found start of implicit include info
    add: [c:/mingw/bin/../lib/gcc/mingw32/9.2.0/include]
    add: [c:/mingw/bin/../lib/gcc/mingw32/9.2.0/../../../../include]
    add: [c:/mingw/bin/../lib/gcc/mingw32/9.2.0/include-fixed]
  end of search list found
  collapse include dir [c:/mingw/bin/../lib/gcc/mingw32/9.2.0/include] ==> [C:/MinGW/lib/gcc/mingw32/9.2.0/include]
  collapse include dir [c:/mingw/bin/../lib/gcc/mingw32/9.2.0/../../../../include] ==> [C:/MinGW/include]
  collapse include dir [c:/mingw/bin/../lib/gcc/mingw32/9.2.0/include-fixed] ==> [C:/MinGW/lib/gcc/mingw32/9.2.0/include-fixed]
  implicit include dirs: [C:/MinGW/lib/gcc/mingw32/9.2.0/include;C:/MinGW/include;C:/MinGW/lib/gcc/mingw32/9.2.0/include-fixed]


Parsed C implicit link information from above output:
  link line regex: [^( *|.*[/\])(ld\.exe|CMAKE_LINK_STARTFILE-NOTFOUND|([^/\]+-)?ld|collect2)[^/\]*( |$)]
  ignore line: [Change Dir: G:/GameEngine/cmake-build-debug/CMakeFiles/CMakeTmp]
  ignore line: []
  ignore line: [Run Build Command(s):C:/MinGW/bin/mingw32-make.exe cmTC_e7256/fast && C:/MinGW/bin/mingw32-make.exe  -f CMakeFiles\cmTC_e7256.dir\build.make CMakeFiles/cmTC_e7256.dir/build]
  ignore line: [mingw32-make.exe[1]: Entering directory 'G:/GameEngine/cmake-build-debug/CMakeFiles/CMakeTmp']
  ignore line: [Building C object CMakeFiles/cmTC_e7256.dir/CMakeCCompilerABI.c.obj]
  ignore line: [C:\MinGW\bin\gcc.exe   -v -o CMakeFiles\cmTC_e7256.dir\CMakeCCompilerABI.c.obj   -c "F:\CLion 2020.2.4\bin\cmake\win\share\cmake-3.17\Modules\CMakeCCompilerABI.c"]
  ignore line: [Using built-in specs.]
  ignore line: [COLLECT_GCC=C:\MinGW\bin\gcc.exe]
  ignore line: [Target: mingw32]
  ignore line: [Configured with: ../src/gcc-9.2.0/configure --build=x86_64-pc-linux-gnu --host=mingw32 --target=mingw32 --disable-win32-registry --with-arch=i586 --with-tune=generic --enable-static --enable-shared --enable-threads --enable-languages=c c++ objc obj-c++ fortran ada --with-dwarf2 --disable-sjlj-exceptions --enable-version-specific-runtime-libs --enable-libgomp --disable-libvtv --with-libiconv-prefix=/mingw --with-libintl-prefix=/mingw --enable-libstdcxx-debug --disable-build-format-warnings --prefix=/mingw --with-gmp=/mingw --with-mpfr=/mingw --with-mpc=/mingw --with-isl=/mingw --enable-nls --with-pkgversion='MinGW.org GCC Build-2']
  ignore line: [Thread model: win32]
  ignore line: [gcc version 9.2.0 (MinGW.org GCC Build-2) ]
  ignore line: [COLLECT_GCC_OPTIONS='-v' '-o' 'CMakeFiles\cmTC_e7256.dir\CMakeCCompilerABI.c.obj' '-c' '-mtune=generic' '-march=i586']
  ignore line: [ c:/mingw/bin/../libexec/gcc/mingw32/9.2.0/cc1.exe -quiet -v -iprefix c:\mingw\bin\../lib/gcc/mingw32/9.2.0/ F:\CLion 2020.2.4\bin\cmake\win\share\cmake-3.17\Modules\CMakeCCompilerABI.c -quiet -dumpbase CMakeCCompilerABI.c -mtune=generic -march=i586 -auxbase-strip CMakeFiles\cmTC_e7256.dir\CMakeCCompilerABI.c.obj -version -o C:\Users\Username\AppData\Local\Temp\ccUqD9GZ.s]
  ignore line: [GNU C17 (MinGW.org GCC Build-2) version 9.2.0 (mingw32)]
  ignore line: [	compiled by GNU C version 9.2.0  GMP version 6.1.2  MPFR version 4.0.2  MPC version 1.1.0  isl version isl-0.21-GMP]
  ignore line: []
  ignore line: [GGC heuristics: --param ggc-min-expand=100 --param ggc-min-heapsize=131072]
  ignore line: [ignoring nonexistent directory "c:\mingw\bin\../lib/gcc/mingw32/9.2.0/../../../../mingw32/include"]
  ignore line: [ignoring duplicate directory "c:/mingw/lib/gcc/../../lib/gcc/mingw32/9.2.0/include"]
  ignore line: [ignoring nonexistent directory "/mingw/include"]
  ignore line: [ignoring duplicate directory "c:/mingw/lib/gcc/../../include"]
  ignore line: [ignoring duplicate directory "c:/mingw/lib/gcc/../../lib/gcc/mingw32/9.2.0/include-fixed"]
  ignore line: [ignoring nonexistent directory "c:/mingw/lib/gcc/../../lib/gcc/mingw32/9.2.0/../../../../mingw32/include"]
  ignore line: [ignoring nonexistent directory "/mingw/include"]
  ignore line: [#include "..." search starts here:]
  ignore line: [#include <...> search starts here:]
  ignore line: [ c:\mingw\bin\../lib/gcc/mingw32/9.2.0/include]
  ignore line: [ c:\mingw\bin\../lib/gcc/mingw32/9.2.0/../../../../include]
  ignore line: [ c:\mingw\bin\../lib/gcc/mingw32/9.2.0/include-fixed]
  ignore line: [End of search list.]
  ignore line: [GNU C17 (MinGW.org GCC Build-2) version 9.2.0 (mingw32)]
  ignore line: [	compiled by GNU C version 9.2.0  GMP version 6.1.2  MPFR version 4.0.2  MPC version 1.1.0  isl version isl-0.21-GMP]
  ignore line: []
  ignore line: [GGC heuristics: --param ggc-min-expand=100 --param ggc-min-heapsize=131072]
  ignore line: [Compiler executable checksum: a3c9f0fbd759fce24f2da2d17091ee0c]
  ignore line: [COLLECT_GCC_OPTIONS='-v' '-o' 'CMakeFiles\cmTC_e7256.dir\CMakeCCompilerABI.c.obj' '-c' '-mtune=generic' '-march=i586']
  ignore line: [ c:/mingw/bin/../lib/gcc/mingw32/9.2.0/../../../../mingw32/bin/as.exe -v -o CMakeFiles\cmTC_e7256.dir\CMakeCCompilerABI.c.obj C:\Users\Username\AppData\Local\Temp\ccUqD9GZ.s]
  ignore line: [GNU assembler version 2.32 (mingw32) using BFD version (GNU Binutils) 2.32]
  ignore line: [COMPILER_PATH=c:/mingw/bin/../libexec/gcc/mingw32/9.2.0/]
  ignore line: [c:/mingw/bin/../libexec/gcc/]
  ignore line: [c:/mingw/bin/../lib/gcc/mingw32/9.2.0/../../../../mingw32/bin/]
  ignore line: [LIBRARY_PATH=c:/mingw/bin/../lib/gcc/mingw32/9.2.0/]
  ignore line: [c:/mingw/bin/../lib/gcc/]
  ignore line: [c:/mingw/bin/../lib/gcc/mingw32/9.2.0/../../../../mingw32/lib/]
  ignore line: [c:/mingw/bin/../lib/gcc/mingw32/9.2.0/../../../]
  ignore line: [COLLECT_GCC_OPTIONS='-v' '-o' 'CMakeFiles\cmTC_e7256.dir\CMakeCCompilerABI.c.obj' '-c' '-mtune=generic' '-march=i586']
  ignore line: [Linking C executable cmTC_e7256.exe]
  ignore line: ["F:\CLion 2020.2.4\bin\cmake\win\bin\cmake.exe" -E cmake_link_script CMakeFiles\cmTC_e7256.dir\link.txt --verbose=1]
  ignore line: ["F:\CLion 2020.2.4\bin\cmake\win\bin\cmake.exe" -E rm -f CMakeFiles\cmTC_e7256.dir/objects.a]
  ignore line: [C:\MinGW\bin\ar.exe cr CMakeFiles\cmTC_e7256.dir/objects.a @CMakeFiles\cmTC_e7256.dir\objects1.rsp]
  ignore line: [C:\MinGW\bin\gcc.exe     -v -Wl --whole-archive CMakeFiles\cmTC_e7256.dir/objects.a -Wl --no-whole-archive  -o cmTC_e7256.exe -Wl --out-implib libcmTC_e7256.dll.a -Wl --major-image-version 0 --minor-image-version 0 ]
  ignore line: [Using built-in specs.]
  ignore line: [COLLECT_GCC=C:\MinGW\bin\gcc.exe]
  ignore line: [COLLECT_LTO_WRAPPER=c:/mingw/bin/../libexec/gcc/mingw32/9.2.0/lto-wrapper.exe]
  ignore line: [Target: mingw32]
  ignore line: [Configured with: ../src/gcc-9.2.0/configure --build=x86_64-pc-linux-gnu --host=mingw32 --target=mingw32 --disable-win32-registry --with-arch=i586 --with-tune=generic --enable-static --enable-shared --enable-threads --enable-languages=c c++ objc obj-c++ fortran ada --with-dwarf2 --disable-sjlj-exceptions --enable-version-specific-runtime-libs --enable-libgomp --disable-libvtv --with-libiconv-prefix=/mingw --with-libintl-prefix=/mingw --enable-libstdcxx-debug --disable-build-format-warnings --prefix=/mingw --with-gmp=/mingw --with-mpfr=/mingw --with-mpc=/mingw --with-isl=/mingw --enable-nls --with-pkgversion='MinGW.org GCC Build-2']
  ignore line: [Thread model: win32]
  ignore line: [gcc version 9.2.0 (MinGW.org GCC Build-2) ]
  ignore line: [COMPILER_PATH=c:/mingw/bin/../libexec/gcc/mingw32/9.2.0/]
  ignore line: [c:/mingw/bin/../libexec/gcc/]
  ignore line: [c:/mingw/bin/../lib/gcc/mingw32/9.2.0/../../../../mingw32/bin/]
  ignore line: [LIBRARY_PATH=c:/mingw/bin/../lib/gcc/mingw32/9.2.0/]
  ignore line: [c:/mingw/bin/../lib/gcc/]
  ignore line: [c:/mingw/bin/../lib/gcc/mingw32/9.2.0/../../../../mingw32/lib/]
  ignore line: [c:/mingw/bin/../lib/gcc/mingw32/9.2.0/../../../]
  ignore line: [COLLECT_GCC_OPTIONS='-v' '-o' 'cmTC_e7256.exe' '-mtune=generic' '-march=i586']
  link line: [ c:/mingw/bin/../libexec/gcc/mingw32/9.2.0/collect2.exe -plugin c:/mingw/bin/../libexec/gcc/mingw32/9.2.0/liblto_plugin-0.dll -plugin-opt=c:/mingw/bin/../libexec/gcc/mingw32/9.2.0/lto-wrapper.exe -plugin-opt=-fresolution=C:\Users\Username\AppData\Local\Temp\cc43N1qe.res -plugin-opt=-pass-through=-lmingw32 -plugin-opt=-pass-through=-lmingwex -plugin-opt=-pass-through=-lmingw32 -plugin-opt=-pass-through=-lmingwex -plugin-opt=-pass-through=-lgcc -plugin-opt=-pass-through=-lgcc_eh -plugin-opt=-pass-through=-lmoldname -plugin-opt=-pass-through=-lmsvcrt -plugin-opt=-pass-through=-ladvapi32 -plugin-opt=-pass-through=-lshell32 -plugin-opt=-pass-through=-luser32 -plugin-opt=-pass-through=-lkernel32 -plugin-opt=-pass-through=-lmingw32 -plugin-opt=-pass-through=-lmingwex -plugin-opt=-pass-through=-lmingw32 -plugin-opt=-pass-through=-lmingwex -plugin-opt=-pass-through=-lgcc -plugin-opt=-pass-through=-lgcc_eh -plugin-opt=-pass-through=-lmoldname -plugin-opt=-pass-through=-lmsvcrt -Bdynamic -o cmTC_e7256.exe c:/mingw/bin/../lib/gcc/mingw32/9.2.0/../../../crt2.o c:/mingw/bin/../lib/gcc/mingw32/9.2.0/crtbegin.o -Lc:/mingw/bin/../lib/gcc/mingw32/9.2.0 -Lc:/mingw/bin/../lib/gcc -Lc:/mingw/bin/../lib/gcc/mingw32/9.2.0/../../../../mingw32/lib -Lc:/mingw/bin/../lib/gcc/mingw32/9.2.0/../../.. --whole-archive CMakeFiles\cmTC_e7256.dir/objects.a --no-whole-archive --out-implib libcmTC_e7256.dll.a --major-image-version 0 --minor-image-version 0 -lmingw32 -lmingwex -lmingw32 -lmingwex -lgcc -lgcc_eh -lmoldname -lmsvcrt -ladvapi32 -lshell32 -luser32 -lkernel32 -lmingw32 -lmingwex -lmingw32 -lmingwex -lgcc -lgcc_eh -lmoldname -lmsvcrt c:/mingw/bin/../lib/gcc/mingw32/9.2.0/crtend.o]
    arg [c:/mingw/bin/../libexec/gcc/mingw32/9.2.0/collect2.exe] ==> ignore
    arg [-plugin] ==> ignore
    arg [c:/mingw/bin/../libexec/gcc/mingw32/9.2.0/liblto_plugin-0.dll] ==> ignore
    arg [-plugin-opt=c:/mingw/bin/../libexec/gcc/mingw32/9.2.0/lto-wrapper.exe] ==> ignore
    arg [-plugin-opt=-fresolution=C:\Users\Username\AppData\Local\Temp\cc43N1qe.res] ==> ignore
    arg [-plugin-opt=-pass-through=-lmingw32] ==> ignore
    arg [-plugin-opt=-pass-through=-lmingwex] ==> ignore
    arg [-plugin-opt=-pass-through=-lmingw32] ==> ignore
    arg [-plugin-opt=-pass-through=-lmingwex] ==> ignore
    arg [-plugin-opt=-pass-through=-lgcc] ==> ignore
    arg [-plugin-opt=-pass-through=-lgcc_eh] ==> ignore
    arg [-plugin-opt=-pass-through=-lmoldname] ==> ignore
    arg [-plugin-opt=-pass-through=-lmsvcrt] ==> ignore
    arg [-plugin-opt=-pass-through=-ladvapi32] ==> ignore
    arg [-plugin-opt=-pass-through=-lshell32] ==> ignore
    arg [-plugin-opt=-pass-through=-luser32] ==> ignore
    arg [-plugin-opt=-pass-through=-lkernel32] ==> ignore
    arg [-plugin-opt=-pass-through=-lmingw32] ==> ignore
    arg [-plugin-opt=-pass-through=-lmingwex] ==> ignore
    arg [-plugin-opt=-pass-through=-lmingw32] ==> ignore
    arg [-plugin-opt=-pass-through=-lmingwex] ==> ignore
    arg [-plugin-opt=-pass-through=-lgcc] ==> ignore
    arg [-plugin-opt=-pass-through=-lgcc_eh] ==> ignore
    arg [-plugin-opt=-pass-through=-lmoldname] ==> ignore
    arg [-plugin-opt=-pass-through=-lmsvcrt] ==> ignore
    arg [-Bdynamic] ==> ignore
    arg [-o] ==> ignore
    arg [cmTC_e7256.exe] ==> ignore
    arg [c:/mingw/bin/../lib/gcc/mingw32/9.2.0/../../../crt2.o] ==> ignore
    arg [c:/mingw/bin/../lib/gcc/mingw32/9.2.0/crtbegin.o] ==> ignore
    arg [-Lc:/mingw/bin/../lib/gcc/mingw32/9.2.0] ==> dir [c:/mingw/bin/../lib/gcc/mingw32/9.2.0]
    arg [-Lc:/mingw/bin/../lib/gcc] ==> dir [c:/mingw/bin/../lib/gcc]
    arg [-Lc:/mingw/bin/../lib/gcc/mingw32/9.2.0/../../../../mingw32/lib] ==> dir [c:/mingw/bin/../lib/gcc/mingw32/9.2.0/../../../../mingw32/lib]
    arg [-Lc:/mingw/bin/../lib/gcc/mingw32/9.2.0/../../..] ==> dir [c:/mingw/bin/../lib/gcc/mingw32/9.2.0/../../..]
    arg [--whole-archive] ==> ignore
    arg [CMakeFiles\cmTC_e7256.dir/objects.a] ==> ignore
    arg [--no-whole-archive] ==> ignore
    arg [--out-implib] ==> ignore
    arg [libcmTC_e7256.dll.a] ==> ignore
    arg [--major-image-version] ==> ignore
    arg [0] ==> ignore
    arg [--minor-image-version] ==> ignore
    arg [0] ==> ignore
    arg [-lmingw32] ==> lib [mingw32]
    arg [-lmingwex] ==> lib [mingwex]
    arg [-lmingw32] ==> lib [mingw32]
    arg [-lmingwex] ==> lib [mingwex]
    arg [-lgcc] ==> lib [gcc]
    arg [-lgcc_eh] ==> lib [gcc_eh]
    arg [-lmoldname] ==> lib [moldname]
    arg [-lmsvcrt] ==> lib [msvcrt]
    arg [-ladvapi32] ==> lib [advapi32]
    arg [-lshell32] ==> lib [shell32]
    arg [-luser32] ==> lib [user32]
    arg [-lkernel32] ==> lib [kernel32]
    arg [-lmingw32] ==> lib [mingw32]
    arg [-lmingwex] ==> lib [mingwex]
    arg [-lmingw32] ==> lib [mingw32]
    arg [-lmingwex] ==> lib [mingwex]
    arg [-lgcc] ==> lib [gcc]
    arg [-lgcc_eh] ==> lib [gcc_eh]
    arg [-lmoldname] ==> lib [moldname]
    arg [-lmsvcrt] ==> lib [msvcrt]
    arg [c:/mingw/bin/../lib/gcc/mingw32/9.2.0/crtend.o] ==> ignore
  remove lib [gcc_eh]
  remove lib [msvcrt]
  remove lib [gcc_eh]
  remove lib [msvcrt]
  collapse library dir [c:/mingw/bin/../lib/gcc/mingw32/9.2.0] ==> [C:/MinGW/lib/gcc/mingw32/9.2.0]
  collapse library dir [c:/mingw/bin/../lib/gcc] ==> [C:/MinGW/lib/gcc]
  collapse library dir [c:/mingw/bin/../lib/gcc/mingw32/9.2.0/../../../../mingw32/lib] ==> [C:/MinGW/mingw32/lib]
  collapse library dir [c:/mingw/bin/../lib/gcc/mingw32/9.2.0/../../..] ==> [C:/MinGW/lib]
  implicit libs: [mingw32;mingwex;mingw32;mingwex;gcc;moldname;advapi32;shell32;user32;kernel32;mingw32;mingwex;mingw32;mingwex;gcc;moldname]
  implicit dirs: [C:/MinGW/lib/gcc/mingw32/9.2.0;C:/MinGW/lib/gcc;C:/MinGW/mingw32/lib;C:/MinGW/lib]
  implicit fwks: []


